{
	"regions": [
		{
			"iso": "IN-AP",
			"name": "Andhra Pradesh"
		},
		{
			"iso": "IN-AR",
			"name": "Arunāchal Pradesh"
		},
		{
			"iso": "IN-AS",
			"name": "Assam"
		},
		{
			"iso": "IN-BR",
			"name": "Bihār"
		},
		{
			"iso": "IN-CT",
			"name": "Chhattīsgarh"
		},
		{
			"iso": "IN-GA",
			"name": "Goa"
		},
		{
			"iso": "IN-GJ",
			"name": "Gujarāt"
		},
		{
			"iso": "IN-HR",
			"name": "Haryāna"
		},
		{
			"iso": "IN-HP",
			"name": "Himāchal Pradesh"
		},
		{
			"iso": "IN-JH",
			"name": "Jhārkhand"
		},
		{
			"iso": "IN-KA",
			"name": "Karnātaka"
		},
		{
			"iso": "IN-KL",
			"name": "Kerala"
		},
		{
			"iso": "IN-MP",
			"name": "Madhya Pradesh"
		},
		{
			"iso": "IN-MH",
			"name": "Mahārāshtra"
		},
		{
			"iso": "IN-MN",
			"name": "Manipur"
		},
		{
			"iso": "IN-ML",
			"name": "Meghālaya"
		},
		{
			"iso": "IN-MZ",
			"name": "Mizoram"
		},
		{
			"iso": "IN-NL",
			"name": "Nāgāland"
		},
		{
			"iso": "IN-OR",
			"name": "Odisha"
		},
		{
			"iso": "IN-PB",
			"name": "Punjab"
		},
		{
			"iso": "IN-RJ",
			"name": "Rājasthān"
		},
		{
			"iso": "IN-SK",
			"name": "Sikkim"
		},
		{
			"iso": "IN-TN",
			"name": "Tamil Nādu"
		},
		{
			"iso": "IN-TG",
			"name": "Telangāna"
		},
		{
			"iso": "IN-TR",
			"name": "Tripura"
		},
		{
			"iso": "IN-UT",
			"name": "Uttarākhand"
		},
		{
			"iso": "IN-UP",
			"name": "Uttar Pradesh"
		},
		{
			"iso": "IN-WB",
			"name": "West Bengal"
		},
		{
			"iso": "IN-AN",
			"name": "Andaman and Nicobar Islands"
		},
		{
			"iso": "IN-CH",
			"name": "Chandīgarh"
		},
		{
			"iso": "IN-DH",
			"name": "Dādra and Nagar Haveli and Damān and Diu"
		},
		{
			"iso": "IN-DL",
			"name": "Delhi"
		},
		{
			"iso": "IN-JK",
			"name": "Jammu and Kashmīr"
		},
		{
			"iso": "IN-LA",
			"name": "Ladākh"
		},
		{
			"iso": "IN-LD",
			"name": "Lakshadweep"
		},
		{
			"iso": "IN-PY",
			"name": "Puducherry"
		}
	]
}
